…
```
## Parsed with column specification:
## cols(
##   Target = col_character(),
##   Source = col_character()
## )
```

```r
edge_list
```

```
## # A tibble: 1,498 x 2
##    Target  Source 
##    <chr>   <chr>  
##  1 Michael Michael
##  2 Michael Michael
##  3 Michael Michael
##  4 Michael Shuo   
##  5 Shuo    Shuo   
##  6 Shuo    Michael
##  7 Michael Shuo   
##  8 Shuo    David  
##  9 David   Shuo   
## 10 Shuo    Michael
## # ... with 1,488 more rows
```

```r
df.fake = data.frame(edge_list)

per_msg <- df.fake %>%  
  group_by(Target, Source) %>%
  summarise(weight = n()) %>% 
  ungroup()
per_msg
```

```
## # A tibble: 69 x 3
##    Target   Source   weight
##    <chr>    <chr>     <int>
##  1 Chadwick Chadwick      4
##  2 Chadwick David         6
##  3 Chadwick Kevin         1
##  4 Chadwick Michael       8
##  5 Chadwick Ricky         5
##  6 Chadwick Shuo          2
##  7 Chadwick Suhail        4
##  8 Chadwick Vincent       2
##  9 David    Chadwick      5
## 10 David    David        26
## # ... with 59 more rows
```
```r
edges <- per_msg %>% 
  left_join(nodes, by = c("Source" = "name")) %>% 
  rename(from = id)

edges <- edges %>% 
  left_join(nodes, by = c("Target" = "name")) %>% 
  rename(to = id)

edges <- select(edges, from, to , weight)
edges
```

```
## # A tibble: 69 x 3
##     from    to weight
##    <int> <int>  <int>
##  1     2     2      4
##  2     8     2      6
##  3     5     2      1
##  4     1     2      8
##  5     3     2      5
##  6     6     2      2
##  7     4     2      4
##  8     9     2      2
##  9     2     8      5
## 10     8     8     26
## # ... with 59 more rows
```
…
